WP1 - metadata analyses
…
A strong re-sampling seems needed in order to reduce at least by 20 the density of loggers (keep 500 loggers).

Owners to this local sampling

## # A tibble: 25 x 5
## # Groups:   name, Full_metadata_all.Meta_data_open_access, height [14]
##    name                   Full_metadata_all.~ height time.range number.of.logge~
##    <chr>                  <chr>                <dbl> <drtn>                <int>
##  1 Dajana Radujkovic      Yes                     -5 421 days                  2
##  2 Jonas Lembrechts       <NA>                   -10 180 days               9586
##  3 Jonas Lembrechts - EWI Blurred_coordinate~     -8  92 days                 32
##  4 Jonas Lembrechts - EWI Blurred_coordinate~     -8  93 days                 10
##  5 Jonas Lembrechts - EWI Blurred_coordinate~     -8  95 days                 29
##  6 Jonas Lembrechts - EWI Blurred_coordinate~     -8  96 days                 59
##  7 Jonas Lembrechts - EWI Blurred_coordinate~     -8  97 days                 20
##  8 Jonas Lembrechts - EWI Blurred_coordinate~     -8 140 days                  3
##  9 Jonas Lembrechts - EWI Blurred_coordinate~     -8 145 days                  1
## 10 Jonas Lembrechts - EWI Blurred_coordinate~     -8 163 days                 10
## # ... with 15 more rows
…
